grant • grant
…
The Grant Opportunities Dataset

The datasets used in this package contains detailed information about
grant opportunities, and is downloaded from the TidyTuesday
packgae, including category, award ceilings and floors, and
application deadlines. The dataset is cleaned and stored within the
package, and no additional data loading is required.

Explore the dataset

Run the below summarise function to explore the number the number of
grant opportunities and total funding by category.

summarize_grants_by_category(grant_opp)
#> # A tibble: 24 × 3
#>    category          number_of_grants total_funding
#>    <chr>                        <int>         <dbl>
#>  1 environment                    216   33925797553
#>  2 transportation                  15   14826348808
#>  3 science                        384   11336601836
#>  4 housing                         19    5712380367
#>  5 energy                          59    5360308000
#>  6 education                      453    5034515000
#>  7 employment                      15    3409030857
#>  8 health                        1065    3005438979
#>  9 natural_resources               78    2463959199
#> 10 other                           85    2321036324
#> # ℹ 14 more rows

The top funded grant dataset would be generated by running the
below:

top_funded_grants(grant_opp, grant, 5)
#> Adding missing grouping variables: `opportunity_id`
#> # A tibble: 2,800 × 4
#> # Groups:   opportunity_id [1,822]
#>    opportunity_id opportunity_title                       total_funding category
#>             <dbl> <chr>                                           <dbl> <chr>   
#>  1         349234 National Clean Investment Fund (NCIF)     13970000000 environ…
#>  2         350332 Fiscal Year (FY) 2023 – 2026 Bridge In…    9620100000 transpo…
#>  3         348957 SOLAR FOR ALL                              7000000000 environ…
#>  4         349233 Clean Communities Investment Accelerat…    6000000000 environ…
#>  5         318351 Defense Production Act Title III Expan…    5000000000 science 
#>  6          49325 Office of Elementary & Secondary Educa…    4350000000 educati…
#>  7         350252 Climate Pollution Reduction Grants Pro…    4300000000 environ…
#>  8         348980 Neighborhood Access and Equity (NAE) P…    3155000000 transpo…
#>  9         349091 Notice of Funding Opportunity (NOFO) f…    3134000000 housing 
#> 10         350200 Fiscal Year (FY) 2024 State Workforce …    2615340000 employm…
#> # ℹ 2,790 more rows
…
